{
    "records": [
        {
            "attributes": {
                "type": "Account",
                "referenceId": "AccountRef1"
            },
            "Name": "FON-ABC Corporation"
        },
        {
            "attributes": {
                "type": "Account",
                "referenceId": "AccountRef2"
            },
            "Name": "FON-Walmart"
        },
        {
            "attributes": {
                "type": "Account",
                "referenceId": "AccountRef3"
            },
            "Name": "FON-Exxon Mobil"
        },
        {
            "attributes": {
                "type": "Account",
                "referenceId": "AccountRef4"
            },
            "Name": "FON-Chevron"
        },
        {
            "attributes": {
                "type": "Account",
                "referenceId": "AccountRef5"
            },
            "Name": "FON-Berkshire Hathaway"
        },
        {
            "attributes": {
                "type": "Account",
                "referenceId": "AccountRef6"
            },
            "Name": "FON-Apple"
        },
        {
            "attributes": {
                "type": "Account",
                "referenceId": "AccountRef7"
            },
            "Name": "FON-General Motors"
        },
        {
            "attributes": {
                "type": "Account",
                "referenceId": "AccountRef8"
            },
            "Name": "FON-Phillips 66"
        },
        {
            "attributes": {
                "type": "Account",
                "referenceId": "AccountRef9"
            },
            "Name": "FON-General Electric"
        },
        {
            "attributes": {
                "type": "Account",
                "referenceId": "AccountRef10"
            },
            "Name": "FON-Ford Motor"
        },
        {
            "attributes": {
                "type": "Account",
                "referenceId": "AccountRef11"
            },
            "Name": "FON-CVS Health"
        },
        {
            "attributes": {
                "type": "Account",
                "referenceId": "AccountRef12"
            },
            "Name": "FON-McKesson"
        },
        {
            "attributes": {
                "type": "Account",
                "referenceId": "AccountRef13"
            },
            "Name": "FON-AT&T"
        },
        {
            "attributes": {
                "type": "Account",
                "referenceId": "AccountRef14"
            },
            "Name": "FON-Valero Energy"
        },
        {
            "attributes": {
                "type": "Account",
                "referenceId": "AccountRef15"
            },
            "Name": "FON-UnitedHealth Group"
        },
        {
            "attributes": {
                "type": "Account",
                "referenceId": "AccountRef16"
            },
            "Name": "FON-Foxworth Consultants, LLC"
        },
        {
            "attributes": {
                "type": "Account",
                "referenceId": "AccountRef17"
            },
            "Name": "FON-Rose Brixton Household"
        },
        {
            "attributes": {
                "type": "Account",
                "referenceId": "AccountRef18"
            },
            "Name": "FON-Clayton Clintford Household"
        },
        {
            "attributes": {
                "type": "Account",
                "referenceId": "AccountRef19"
            },
            "Name": "FON-Flannigan Household"
        },
        {
            "attributes": {
                "type": "Account",
                "referenceId": "AccountRef20"
            },
            "Name": "FON-Etta Brown Household"
        },
        {
            "attributes": {
                "type": "Account",
                "referenceId": "AccountRef21"
            },
            "Name": "FON-National Association Guest Checkout Account"
        },
        {
            "attributes": {
                "type": "Account",
                "referenceId": "AccountRef22"
            },
            "Name": "FON-INTERNATIONAL ASSOCIATION: AUTH PROVIDER DEFAULT ACCOUNT"
        },
        {
            "attributes": {
                "type": "Account",
                "referenceId": "AccountRef23"
            },
            "Name": "FON-Guest Checkout Account Foundation Store"
        },
        {
            "attributes": {
                "type": "Account",
                "referenceId": "AccountRef24"
            },
            "Name": "FON-FOUNDATION: AUTH PROVIDER DEFAULT ACCOUNT"
        },
        {
            "attributes": {
                "type": "Account",
                "referenceId": "AccountRef25"
            },
            "Name": "FON-Default Account"
        },
        {
            "attributes": {
                "type": "Account",
                "referenceId": "AccountRef26"
            },
            "Name": "FON-Farm Association of Europe"
        },
        {
            "attributes": {
                "type": "Account",
                "referenceId": "AccountRef27"
            },
            "Name": "FON-Western Hospital"
        },
        {
            "attributes": {
                "type": "Account",
                "referenceId": "AccountRef28"
            },
            "Name": "FON-Western Hospital"
        },
        {
            "attributes": {
                "type": "Account",
                "referenceId": "AccountRef29"
            },
            "Name": "FON-Johnny Co"
        },
        {
            "attributes": {
                "type": "Account",
                "referenceId": "AccountRef30"
            },
            "Name": "FON-Johnny Co"
        },
        {
            "attributes": {
                "type": "Account",
                "referenceId": "AccountRef31"
            },
            "Name": "FON-234"
        },
        {
            "attributes": {
                "type": "Account",
                "referenceId": "AccountRef32"
            },
            "Name": "FON-Traction Rec"
        },
        {
            "attributes": {
                "type": "Account",
                "referenceId": "AccountRef33"
            },
            "Name": "FON-Traction Rec"
        },
        {
            "attributes": {
                "type": "Account",
                "referenceId": "AccountRef34"
            },
            "Name": "FON-APPTTUS STOREFRONT: AUTH PROVIDER DEFAULT ACCOUNT"
        },
        {
            "attributes": {
                "type": "Account",
                "referenceId": "AccountRef35"
            },
            "Name": "FON-APPTTUS STOREFRONT: AUTH PROVIDER DEFAULT ACCOUNT"
        },
        {
            "attributes": {
                "type": "Account",
                "referenceId": "AccountRef36"
            },
            "Name": "FON-INTERNATIONAL ASSOCIATION: AUTH PROVIDER DEFAULT ACCOUNT"
        },
        {
            "attributes": {
                "type": "Account",
                "referenceId": "AccountRef37"
            },
            "Name": "FON-INTERNATIONAL ASSOCIATION: AUTH PROVIDER DEFAULT ACCOUNT"
        },
        {
            "attributes": {
                "type": "Account",
                "referenceId": "AccountRef38"
            },
            "Name": "FON-APPTTUS STOREFRONT: AUTH PROVIDER DEFAULT ACCOUNT"
        },
        {
            "attributes": {
                "type": "Account",
                "referenceId": "AccountRef39"
            },
            "Name": "FON-APPTTUS STOREFRONT: AUTH PROVIDER DEFAULT ACCOUNT"
        },
        {
            "attributes": {
                "type": "Account",
                "referenceId": "AccountRef40"
            },
            "Name": "FON-APPTTUS STOREFRONT: AUTH PROVIDER DEFAULT ACCOUNT"
        },
        {
            "attributes": {
                "type": "Account",
                "referenceId": "AccountRef41"
            },
            "Name": "FON-APPTTUS STOREFRONT: AUTH PROVIDER DEFAULT ACCOUNT"
        },
        {
            "attributes": {
                "type": "Account",
                "referenceId": "AccountRef42"
            },
            "Name": "FON-null ss Person"
        },
        {
            "attributes": {
                "type": "Account",
                "referenceId": "AccountRef43"
            },
            "Name": "FON-Tom Jerry Person"
        },
        {
            "attributes": {
                "type": "Account",
                "referenceId": "AccountRef44"
            },
            "Name": "FON-Tory Kenton Household"
        },
        {
            "attributes": {
                "type": "Account",
                "referenceId": "AccountRef45"
            },
            "Name": "FON-Adam Sandler Household"
        },
        {
            "attributes": {
                "type": "Account",
                "referenceId": "AccountRef46"
            },
            "Name": "FON-Anthony Brown Household"
        },
        {
            "attributes": {
                "type": "Account",
                "referenceId": "AccountRef47"
            },
            "Name": "FON-Jason Thompson Household"
        },
        {
            "attributes": {
                "type": "Account",
                "referenceId": "AccountRef48"
            },
            "Name": "FON-Matthew Byers Household"
        },
        {
            "attributes": {
                "type": "Account",
                "referenceId": "AccountRef49"
            },
            "Name": "FON-Janice Smythe Household"
        },
        {
            "attributes": {
                "type": "Account",
                "referenceId": "AccountRef50"
            },
            "Name": "FON-John Smithson Household"
        }
    ]
}